<svg xmlns="http://www.w3.org/2000/svg" width="24" height="24" viewBox="0 0 24 24">
  <path fill="#727272" fill-rule="evenodd" d="M12,0 L2,0 C0.9,0 0.01,0.9 0.01,2 L0,18 L7,15 L14,18 L14,2 C14,0.9 13.1,0 12,0 L12,0 Z M12,15 L7,12.82 L2,15 L2,2 L12,2 L12,15 L12,15 Z" transform="translate(5 3)"/>
</svg>
