<svg xmlns="http://www.w3.org/2000/svg" width="24" height="24" viewBox="0 0 24 24">
  <polygon fill="#727272" fill-rule="evenodd" points="8 17 8 11 12 11 12 17 17 17 17 9 20 9 10 0 0 9 3 9 3 17" transform="translate(2 3)"/>
</svg>
