<svg xmlns="http://www.w3.org/2000/svg" width="24" height="24" viewBox="0 0 24 24">
  <path fill="#727272" fill-rule="evenodd" d="M20,7.24 L12.81,6.62 L10,0 L7.19,6.63 L0,7.24 L5.46,11.97 L3.82,19 L10,15.27 L16.18,19 L14.55,11.97 L20,7.24 L20,7.24 Z M10,13.4 L6.24,15.67 L7.24,11.39 L3.92,8.51 L8.3,8.13 L10,4.1 L11.71,8.14 L16.09,8.52 L12.77,11.4 L13.77,15.68 L10,13.4 L10,13.4 Z" transform="translate(2 2)"/>
</svg>
