<?xml version="1.0" encoding="UTF-8"?>
<svg width="180px" height="164px" viewBox="0 0 180 164" version="1.1" xmlns="http://www.w3.org/2000/svg" xmlns:xlink="http://www.w3.org/1999/xlink">
    <!-- Generator: sketchtool 40.3 (33839) - http://www.bohemiancoding.com/sketch -->
    <title>DF334031-3E1A-4969-B3B6-FC92F413467D</title>
    <desc>Created with sketchtool.</desc>
    <defs>
        <filter x="-50%" y="-50%" width="200%" height="200%" filterUnits="objectBoundingBox" id="filter-1">
            <feOffset dx="0" dy="0" in="SourceAlpha" result="shadowOffsetOuter1"></feOffset>
            <feGaussianBlur stdDeviation="21" in="shadowOffsetOuter1" result="shadowBlurOuter1"></feGaussianBlur>
            <feColorMatrix values="0 0 0 0 1   0 0 0 0 1   0 0 0 0 1  0 0 0 1 0" type="matrix" in="shadowBlurOuter1" result="shadowMatrixOuter1"></feColorMatrix>
            <feMerge>
                <feMergeNode in="shadowMatrixOuter1"></feMergeNode>
                <feMergeNode in="SourceGraphic"></feMergeNode>
            </feMerge>
        </filter>
    </defs>
    <g id="Inicio" stroke="none" stroke-width="1" fill="none" fill-rule="evenodd">
        <g transform="translate(-82.000000, -13.000000)" id="logo">
            <g transform="translate(120.000000, 51.000000)">
                <g id="Group-2" filter="url(#filter-1)">
                    <path d="M60.4691,12.1373 C60.4691,10.0883 62.1311,8.4273 64.1801,8.4273 C66.2291,8.4273 67.8891,10.0883 67.8891,12.1373 C67.8891,14.1863 66.2291,15.8483 64.1801,15.8483 C62.1311,15.8483 60.4691,14.1863 60.4691,12.1373" id="Fill-5" fill="#FFFFFF"></path>
                    <path d="M48.6437,18.4862 C48.6437,18.4862 46.8537,11.2212 52.0887,6.4982 C43.7467,14.2542 42.1177,17.4442 42.1177,17.4442 C47.2847,18.4312 48.6437,18.4862 48.6437,18.4862" id="Fill-7" fill="#EA2624"></path>
                    <path d="M48.6437,18.4862 L48.6767,18.4782 C48.6747,18.4752 48.3817,17.2822 48.3817,15.5452 C48.3817,13.0072 49.0117,9.3182 52.1107,6.5232 L52.0887,6.4982 L52.0687,6.4752 C43.7237,14.2322 42.0917,17.4252 42.0887,17.4312 L42.0717,17.4682 L42.1117,17.4762 C47.2787,18.4632 48.6397,18.5162 48.6437,18.5172 L48.6857,18.5192 L48.6767,18.4782 L48.6437,18.4862 L48.6447,18.4532 C48.6437,18.4532 48.3087,18.4402 47.3237,18.3032 C46.3387,18.1672 44.7067,17.9072 42.1247,17.4142 L42.1177,17.4442 L42.1477,17.4592 C42.1487,17.4572 42.5507,16.6662 43.9987,14.9002 C45.4477,13.1352 47.9417,10.3992 52.1107,6.5222 L52.0687,6.4742 C48.9487,9.2862 48.3177,12.9992 48.3177,15.5452 C48.3177,17.2892 48.6137,18.4912 48.6137,18.4932 L48.6437,18.4862 L48.6447,18.4532 L48.6437,18.4862" id="Fill-9" fill="#EA2624"></path>
                    <path d="M78.2985,18.827 C77.7735,15.843 77.1615,13.201 76.4665,11.28 C77.0235,11.367 77.5705,11.595 78.0495,11.967 C79.5415,13.135 81.8345,18.507 82.0325,19.436 C82.0385,19.468 80.2415,19.228 78.2985,18.827" id="Fill-11" fill="#ADD7E5"></path>
                    <path d="M75.82,11.2416 L76.019,11.2416 C76.169,11.2446 76.318,11.2566 76.466,11.2796 C77.162,13.2006 77.774,15.8426 78.298,18.8266 C76.484,18.4546 74.543,17.9406 73.821,17.3776 C72.327,16.2096 72.061,14.0526 73.23,12.5586 C73.88,11.7256 74.84,11.2746 75.82,11.2416" id="Fill-13" fill="#2FB1D7"></path>
                    <path d="M61.9851,30.692 C62.6431,32.984 64.1021,35.072 66.2631,36.466 C68.7511,38.087 74.8551,39.305 80.4361,40.001 C80.5911,44.14 80.4921,46.952 80.1181,46.885 C76.9301,46.296 67.4451,39.841 59.9841,33.278 C60.6421,32.447 61.3141,31.577 61.9851,30.692 M76.0191,11.242 L76.4481,11.235 L76.4661,11.28 C76.3171,11.257 76.1691,11.244 76.0191,11.242 M69.5171,10.043 C69.4601,9.243 69.2951,8.436 69.0051,7.645 C67.3471,3.088 62.3071,0.736 57.7491,2.396 C56.6871,2.784 55.3391,3.692 53.8801,4.883 C54.9161,3.906 56.1091,3.058 57.4421,2.377 C63.5471,-0.732 69.2831,1.092 73.2901,5.893 C72.5621,6.096 71.9221,6.605 71.5771,7.347 C70.9501,8.689 71.5311,10.287 72.8761,10.914 C73.4181,11.168 74.6011,11.244 75.8201,11.242 C74.8401,11.274 73.8801,11.726 73.2301,12.559 C72.0611,14.053 72.3271,16.21 73.8211,17.378 C74.5421,17.941 76.4841,18.455 78.2981,18.827 C78.3721,19.248 78.4441,19.674 78.5141,20.106 C78.1401,19.751 77.7831,19.461 77.4491,19.244 C75.1871,17.775 72.5641,17.31 70.1011,17.736 C70.3161,17.153 70.4571,16.628 70.5131,16.177 C70.7801,13.998 70.3981,11.888 69.5171,10.043" id="Fill-15" fill="#62BFEC"></path>
                    <path d="M69.5174,10.0432 C70.3984,11.8882 70.7794,13.9982 70.5124,16.1772 C70.4564,16.6282 70.3164,17.1532 70.1004,17.7362 C67.3854,18.2092 64.8644,19.7672 63.2434,22.2622 C61.5574,24.8582 61.1944,27.9342 61.9854,30.6922 C61.3144,31.5772 60.6424,32.4462 59.9834,33.2782 C55.7304,29.5412 52.1334,25.7612 50.7364,23.0192 C50.0084,21.5892 49.5244,20.0972 49.2704,18.5942 C54.5154,19.2812 61.1654,19.8452 63.7564,18.9022 C67.5224,17.5302 69.7814,13.8512 69.5174,10.0432" id="Fill-17" fill="#752A7B"></path>
                    <path d="M59.9837,33.2781 C56.3337,37.8851 53.1057,41.4351 52.9507,41.0721 C52.8607,40.8721 49.5207,27.0631 48.6087,18.5051 L49.2707,18.5941 C49.5247,20.0981 50.0087,21.5891 50.7367,23.0191 C52.1337,25.7611 55.7297,29.5411 59.9837,33.2781" id="Fill-19" fill="#B91E7D"></path>
                    <path d="M61.9851,30.692 C61.1941,27.934 61.5571,24.858 63.2431,22.263 C64.8641,19.768 67.3851,18.21 70.1011,17.736 C68.9121,20.982 65.4741,26.083 61.9851,30.692" id="Fill-21" fill="#5B2525"></path>
                    <path d="M66.2632,36.4656 C64.1022,35.0726 62.6432,32.9836 61.9852,30.6916 C65.4742,26.0826 68.9122,20.9826 70.1012,17.7366 C72.5642,17.3096 75.1872,17.7746 77.4492,19.2446 C77.7832,19.4606 78.1402,19.7516 78.5142,20.1056 C79.5742,26.6486 80.2312,34.4966 80.4362,40.0006 C74.8552,39.3056 68.7512,38.0866 66.2632,36.4656" id="Fill-23" fill="#67B046"></path>
                    <path d="M78.5139,20.1058 C83.4559,24.7858 91.4139,40.4168 91.2729,40.4698 C90.1869,40.8188 85.5299,40.6308 80.4359,40.0008 C80.2319,34.4968 79.5749,26.6478 78.5139,20.1058" id="Fill-25" fill="#D1DC35"></path>
                    <path d="M69.5174,10.0432 C69.7814,13.8512 67.5224,17.5302 63.7564,18.9022 C61.1654,19.8452 54.5154,19.2812 49.2704,18.5942 C48.4974,13.9952 49.8764,9.2802 52.9614,5.8252 C55.1564,4.2342 57.9344,3.4362 60.8384,3.7922 C64.7494,4.2732 67.9344,6.7322 69.5174,10.0432" id="Fill-27" fill="#2B1C53"></path>
                    <path d="M49.2709,18.5939 L48.6079,18.5049 C48.3859,16.4279 48.3089,14.6579 48.4539,13.4679 C48.8459,10.2789 50.5509,7.5739 52.9609,5.8249 C49.8759,9.2799 48.4979,13.9959 49.2709,18.5939" id="Fill-29" fill="#351C54"></path>
                    <path d="M57.7493,2.3964 C62.3073,0.7354 67.3473,3.0874 69.0043,7.6454 C69.2953,8.4354 69.4603,9.2434 69.5173,10.0434 C67.9343,6.7314 64.7503,4.2734 60.8383,3.7924 C57.9343,3.4364 55.1563,4.2344 52.9613,5.8254 C53.2533,5.4994 53.5583,5.1844 53.8803,4.8834 C55.3393,3.6914 56.6873,2.7834 57.7493,2.3964" id="Fill-31" fill="#1E7798"></path>
                    <path d="M76.4485,11.2347 C75.0265,11.2637 73.5095,11.2097 72.8765,10.9147 C71.5315,10.2877 70.9505,8.6897 71.5775,7.3467 C71.9225,6.6047 72.5615,6.0967 73.2895,5.8937 C74.2395,7.0327 75.0935,8.3387 75.8305,9.7857 C76.0435,10.2027 76.2485,10.6897 76.4485,11.2347" id="Fill-33" fill="#543A8C"></path>
                    <path d="M75.1452,6.0474 C76.4892,6.6744 79.1832,10.3654 79.4982,11.0384 C79.5082,11.0614 78.0372,11.2004 76.4482,11.2344 C76.2482,10.6894 76.0432,10.2024 75.8312,9.7854 C75.0932,8.3394 74.2402,7.0334 73.2902,5.8934 C73.8852,5.7274 74.5412,5.7654 75.1452,6.0474" id="Fill-35" fill="#843B8B"></path>
                    <path d="M60.2891,12.3118 C60.2891,10.2668 61.9451,8.6088 63.9891,8.6088 C66.0341,8.6088 67.6921,10.2668 67.6921,12.3118 C67.6921,14.3568 66.0341,16.0128 63.9891,16.0128 C61.9451,16.0128 60.2891,14.3568 60.2891,12.3118" id="Fill-37" fill="#FFFFFF"></path>
                    <polygon id="Fill-39" fill="#000000" points="24.5991 78.4542 10.7001 81.1602 21.1441 61.0832 20.3001 56.7432 0.1151 60.6672 1.0231 65.3282 14.2961 62.7572 3.9711 82.4722 4.8791 87.1332 25.5071 83.1292"></polygon>
                    <path d="M30.6399,63.3732 C29.0329,59.5832 24.7909,60.6002 22.6259,61.5242 C19.4769,62.8642 16.4939,64.9142 18.0319,69.8152 L21.9309,68.1542 C21.6669,67.2162 21.4869,65.8242 23.5079,64.9672 C24.5489,64.5252 26.2019,63.9222 26.9259,65.6222 C27.2939,66.4942 26.6239,67.0832 26.0249,67.4442 L22.6199,69.5342 C20.2069,71.0082 18.9509,73.3372 20.2259,76.3522 C21.5749,79.5252 24.4959,79.8202 26.8059,78.8422 C29.5509,77.6772 30.3109,75.8552 30.8309,74.5032 C31.2849,75.3332 31.4419,75.5472 31.9789,76.1642 L36.3409,74.3152 L36.0839,73.7122 C35.5189,73.7402 34.9429,73.5122 34.1699,71.6912 L30.6399,63.3732 Z M29.1459,70.8602 C29.9429,72.7352 28.6139,74.6642 26.8229,75.4272 C26.0429,75.7492 24.7609,75.7892 24.1599,74.3692 C23.4489,72.6952 24.5319,71.7972 25.9229,70.9002 C27.4889,69.9222 28.0429,69.3872 28.3109,68.8902 L29.1459,70.8602 L29.1459,70.8602 Z" id="Fill-41" fill="#000000"></path>
                    <path d="M51.2899,63.1592 C51.3539,59.4892 48.8459,57.5332 45.5819,57.4792 C43.1969,57.4262 41.2939,58.6182 40.7049,59.9982 L40.6409,59.9982 L40.7819,51.9882 L36.3879,51.9082 L35.9949,74.4502 L40.3889,74.5172 L40.5549,64.9532 C40.5999,62.4092 42.1289,61.1222 44.0739,61.1492 C46.8669,61.2032 46.8929,63.2652 46.8729,64.4982 L46.6959,74.6372 L51.0879,74.7032 L51.2899,63.1592" id="Fill-43" fill="#000000"></path>
                    <path d="M68.1677,75.0118 L72.5607,75.0788 L72.7117,66.3858 C72.7447,64.5388 73.4097,62.4218 76.8297,62.4758 C77.2367,62.4898 77.7067,62.4898 78.0827,62.5568 L78.1607,58.1098 C77.8797,58.0688 77.5977,58.0288 77.3147,58.0288 C74.6477,57.9758 73.6157,59.5958 72.6747,61.2698 L72.6137,61.2698 L72.6627,58.3908 L68.4597,58.3098 L68.1677,75.0118" id="Fill-45" fill="#000000"></path>
                    <path d="M78.1663,75.1863 L82.5603,75.2533 L82.7113,66.5603 C82.7433,64.7123 83.4083,62.5963 86.8283,62.6493 C87.2363,62.6633 87.7063,62.6633 88.0833,62.7293 L88.1603,58.2843 C87.8783,58.2433 87.5973,58.2033 87.3143,58.2033 C84.6473,58.1493 83.6153,59.7703 82.6743,61.4443 L82.6123,61.4443 L82.6623,58.5653 L78.4563,58.4843 L78.1663,75.1863" id="Fill-47" fill="#000000"></path>
                    <path d="M101.9369,63.2928 C102.0079,59.1808 97.7219,58.3908 95.3689,58.3368 C91.9479,58.2838 88.3899,58.9398 87.7979,64.0428 L92.0339,64.1228 C92.1759,63.1588 92.5779,61.8058 94.7729,61.8468 C95.9029,61.8738 97.6589,61.9938 97.6259,63.8418 C97.6099,64.7788 96.7579,65.0478 96.0649,65.1418 L92.1019,65.6638 C89.3019,66.0248 87.2019,67.6458 87.1459,70.9138 C87.0849,74.3698 89.6329,75.8158 92.1429,75.8698 C95.1249,75.9228 96.5599,74.5568 97.5839,73.5398 C97.6619,74.4898 97.7189,74.7448 97.9569,75.5218 L102.6939,75.6148 L102.7059,74.9448 C102.1759,74.7568 101.7429,74.3018 101.7789,72.3328 L101.9369,63.2928 Z M97.5269,69.5208 C97.4909,71.5698 95.4939,72.7878 93.5469,72.7488 C92.7009,72.7348 91.5159,72.2398 91.5429,70.7128 C91.5739,68.8908 92.9319,68.5038 94.5679,68.2488 C96.3919,67.9938 97.1199,67.7258 97.5649,67.3908 L97.5269,69.5208 L97.5269,69.5208 Z" id="Fill-49" fill="#000000"></path>
                    <path d="M3.1924,55.8995 L12.7314,56.0605 C17.3434,56.1405 18.5814,55.3775 19.8884,54.1445 C21.1024,53.0065 21.8844,51.3325 21.9164,49.5365 C21.9554,47.3145 21.2714,45.1045 18.5264,44.0195 C19.4774,43.5645 21.3134,42.6795 21.3694,39.4525 C21.4104,37.1345 20.0574,33.6525 14.5354,33.5585 L3.5834,33.3705 L3.1924,55.8995 Z M7.8834,46.0555 L13.8764,46.1625 C15.5694,46.2025 17.2524,46.9795 17.2184,48.9615 C17.1774,51.2515 15.8424,52.2295 13.5524,52.1895 L7.7784,52.0825 L7.8834,46.0555 Z M8.0344,37.3355 L13.4324,37.4295 C15.5654,37.4705 16.8734,38.0595 16.8414,39.9075 C16.8104,41.7015 15.3234,42.3985 13.4714,42.3595 L7.9494,42.2655 L8.0344,37.3355 L8.0344,37.3355 Z" id="Fill-51" fill="#000000"></path>
                    <path d="M23.7116,39.5589 L23.4196,56.2469 L27.8136,56.3279 L28.1046,39.6389 L23.7116,39.5589 Z M28.2086,33.5729 L23.8166,33.5059 L23.7456,37.5769 L28.1386,37.6569 L28.2086,33.5729 Z" id="Fill-53" fill="#000000"></path>
                    <polygon id="Fill-55" fill="#000000" points="34.723 33.9066 30.33 33.8396 29.938 56.3686 34.33 56.4486"></polygon>
                    <path d="M48.0507,48.4531 C48.0167,50.4351 47.1777,53.5011 44.3537,53.4481 C41.5597,53.3951 40.5037,51.0501 40.5467,48.5731 C40.5937,45.9081 41.3937,43.2291 44.4047,43.2821 C47.1977,43.3231 48.0967,45.8271 48.0507,48.4531 M40.9887,34.0281 L36.5967,33.9471 L36.2037,56.4751 L40.5007,56.5551 L40.5387,54.4531 L40.6017,54.4531 C41.6347,56.3551 43.5697,57.0381 45.3897,57.0771 C50.3467,57.1581 52.4947,52.8061 52.5737,48.2251 C52.6747,42.4521 49.4617,39.5721 45.7887,39.5061 C42.9657,39.4521 41.6217,40.9661 40.9127,42.0241 L40.8497,42.0241 L40.9887,34.0281" id="Fill-57" fill="#000000"></path>
                    <path d="M69.5352,48.7067 C69.6412,42.6797 65.6412,39.8537 61.1532,39.7727 C56.6672,39.6937 52.5712,42.3847 52.4652,48.4127 C52.3612,54.4397 56.3602,57.2657 60.8472,57.3457 C65.3362,57.4267 69.4312,54.7337 69.5352,48.7067 M65.0182,48.6267 C64.9802,50.7557 64.3012,53.7037 60.9132,53.6367 C57.5242,53.5817 56.9482,50.6217 56.9842,48.4927 C57.0222,46.3497 57.7012,43.4167 61.0892,43.4697 C64.4782,43.5367 65.0552,46.4967 65.0182,48.6267" id="Fill-59" fill="#000000"></path>
                    <path d="M65.0184,48.6263 C64.9804,50.7563 64.3014,53.7033 60.9134,53.6363 C57.5244,53.5823 56.9474,50.6223 56.9844,48.4923 C57.0224,46.3493 57.7014,43.4173 61.0894,43.4703 C64.4784,43.5373 65.0554,46.4963 65.0184,48.6263" id="Fill-61" fill="#000000"></path>
                    <path d="M65.0184,48.6263 L64.7774,48.6263 C64.7594,49.6583 64.5824,50.8773 64.0324,51.8013 C63.4764,52.7383 62.5914,53.3953 61.0134,53.3953 L60.9164,53.3953 C59.3404,53.3683 58.4634,52.7123 57.9224,51.8133 C57.3854,50.9033 57.2234,49.7113 57.2244,48.6813 L57.2254,48.4923 C57.2434,47.4623 57.4194,46.2433 57.9704,45.3193 C58.5264,44.3813 59.4094,43.7253 60.9884,43.7113 L61.0854,43.7113 C62.6624,43.7513 63.5394,44.4083 64.0804,45.3053 C64.6174,46.2163 64.7794,47.4073 64.7784,48.4393 L64.7774,48.6263 L65.2594,48.6263 L65.2614,48.4393 C65.2594,47.3543 65.1014,46.0963 64.4964,45.0643 C63.8954,44.0333 62.8084,43.2563 61.0934,43.2293 L60.9884,43.2293 C59.2664,43.2293 58.1674,44.0193 57.5554,45.0643 C56.9384,46.1223 56.7634,47.4073 56.7434,48.4793 L56.7414,48.6813 C56.7434,49.7523 56.9004,51.0243 57.5054,52.0553 C58.1064,53.0873 59.1944,53.8643 60.9094,53.8763 L61.0134,53.8903 C62.7364,53.8903 63.8354,53.1003 64.4474,52.0553 C65.0644,50.9973 65.2394,49.7113 65.2594,48.6263 L65.0184,48.6263" id="Fill-63" fill="#000000"></path>
                    <polygon id="Fill-65" fill="#FFFFFF" points="56.2565 50.006 56.4475 39.037 58.2295 39.064 58.0375 50.047"></polygon>
                    <polygon id="Fill-67" fill="#FFFFFF" points="59.024 50.006 59.216 39.037 60.997 39.064 60.806 50.047"></polygon>
                    <polygon id="Fill-69" fill="#FFFFFF" points="61.9401 50.1532 62.1321 39.1842 63.9111 39.2112 63.7211 50.1942"></polygon>
                    <polygon id="Fill-71" fill="#000000" points="60.5428 83.5979 63.6848 83.7709 63.7398 82.7129 61.6528 82.6069 61.7658 80.4369 63.5858 80.5439 63.6378 79.5529 61.8188 79.4449 61.9308 77.2889 64.0188 77.3959 64.0708 76.4049 60.9288 76.2439"></polygon>
                    <path d="M68.1582,76.6191 L67.1042,76.5661 L66.8112,82.1641 C66.7842,82.6871 66.4912,82.9151 66.1182,82.9011 C65.7482,82.8741 65.4822,82.6191 65.5082,82.0971 L65.8012,76.4991 L64.7472,76.4451 L64.4482,82.1511 C64.3992,83.1151 65.1232,83.9061 66.0642,83.9591 C67.0052,83.9991 67.8092,83.2901 67.8582,82.3241 L68.1582,76.6191" id="Fill-73" fill="#000000"></path>
                    <path d="M72.4744,78.4542 C72.5164,77.6372 71.8594,76.7532 70.8044,76.6992 C69.5964,76.6332 68.9484,77.5042 68.8904,78.6152 C68.8424,79.5392 69.0484,80.1552 69.9384,80.5702 L70.6764,80.9192 C71.1834,81.1602 71.2694,81.2802 71.2284,82.0712 C71.1924,82.7402 71.1194,83.1552 70.4064,83.1292 C69.8694,83.1022 69.6824,82.7132 69.7014,82.3242 L69.7194,82.0032 L68.6654,81.9502 L68.6434,82.3382 C68.5914,83.3292 69.3284,84.1202 70.3514,84.1732 C71.7154,84.2542 72.2164,83.3562 72.2824,82.1102 C72.3394,81.0392 72.1954,80.4362 71.2834,80.0342 L70.4934,79.6732 C69.9564,79.4322 69.9154,79.2312 69.9454,78.6682 C69.9714,78.1732 70.1294,77.7182 70.7094,77.7442 C71.2464,77.7852 71.4314,78.1992 71.4054,78.6822 L71.3934,78.9232 L72.4474,78.9762 L72.4744,78.4542" id="Fill-75" fill="#000000"></path>
                    <polygon id="Fill-77" fill="#000000" points="72.9529 84.2537 74.0069 84.3067 74.1209 82.1107 74.7459 81.0667 75.7749 84.4007 76.8899 84.4537 75.4149 79.9537 77.0059 77.0877 75.9519 77.0347 74.2369 80.3027 74.2169 80.3027 74.3929 76.9547 73.3389 76.9017"></polygon>
                    <path d="M79.6168,82.0165 L78.5628,81.9635 L79.2188,79.3255 L79.2388,79.3255 L79.6168,82.0165 Z M76.8778,84.4545 L77.9318,84.5085 L78.3248,82.9545 L79.7598,83.0215 L79.9878,84.6145 L81.0428,84.6815 L79.7848,77.2355 L78.9068,77.1825 L76.8778,84.4545 Z" id="Fill-79" fill="#000000"></path>
                    <polygon id="Fill-81" fill="#000000" points="81.5554 84.709 84.6974 84.87 84.7524 83.812 82.6634 83.704 82.9954 77.396 81.9414 77.343"></polygon>
                    <polygon id="Fill-83" fill="#000000" points="85.3018 84.8972 86.3558 84.9502 86.6898 78.5882 87.9088 78.6542 87.9618 77.6632 84.4688 77.4762 84.4158 78.4682 85.6348 78.5342"></polygon>
                    <polygon id="Fill-85" fill="#000000" points="88.0366 85.0444 91.1786 85.2044 91.2336 84.1594 89.1466 84.0394 89.2596 81.8834 91.0786 81.9774 91.1296 80.9854 89.3116 80.8914 89.4246 78.7354 91.5116 78.8424 91.5636 77.8514 88.4226 77.6904"></polygon>
                    <path d="M91.8838,83.5039 C91.8208,84.6959 92.7008,85.3529 93.5568,85.3919 C94.4158,85.4449 95.3558,84.8839 95.4188,83.6909 L95.5398,81.3739 L93.6498,81.2799 L93.5998,82.2049 L94.4378,82.2439 L94.3648,83.6379 C94.3378,84.1459 93.9958,84.3619 93.6138,84.3339 C93.2308,84.3209 92.9128,84.0669 92.9378,83.5569 L93.1418,79.6729 C93.1678,79.1649 93.5118,78.9509 93.8948,78.9629 C94.2768,78.9899 94.5958,79.2449 94.5678,79.7539 L94.5478,80.1149 L95.6038,80.1689 L95.6218,79.8069 C95.6848,78.6019 94.8078,77.9589 93.9488,77.9189 C93.0918,77.8649 92.1508,78.4149 92.0888,79.6199 L91.8838,83.5039" id="Fill-87" fill="#000000"></path>
                    <polygon id="Fill-89" fill="#000000" points="96.2874 85.4725 97.3414 85.5255 97.7274 78.1735 96.6714 78.1185"></polygon>
                    <path d="M100.6227,83.129 L99.5687,83.062 L100.2247,80.423 L100.2467,80.423 L100.6227,83.129 Z M97.8837,85.553 L98.9377,85.62 L99.3317,84.053 L100.7677,84.12 L100.9937,85.727 L102.0477,85.781 L100.7907,78.334 L99.9127,78.293 L97.8837,85.553 Z" id="Fill-91" fill="#000000"></path>
                    <path d="M66.7334,62.7434 C66.8044,58.6314 62.5184,57.8414 60.1654,57.7874 C56.7444,57.7344 53.1864,58.3904 52.5944,63.4934 L56.8304,63.5734 C56.9724,62.6094 57.3744,61.2564 59.5694,61.2974 C60.6994,61.3244 62.4554,61.4444 62.4224,63.2924 C62.4064,64.2294 61.5544,64.4984 60.8614,64.5924 L56.8984,65.1144 C54.0984,65.4754 51.9984,67.0964 51.9424,70.3644 C51.8814,73.8204 54.4294,75.2664 56.9394,75.3204 C59.9214,75.3734 61.3564,74.0074 62.3804,72.9904 C62.4584,73.9404 62.5154,74.1954 62.7534,74.9724 L67.4904,75.0654 L67.5024,74.3954 C66.9724,74.2074 66.5394,73.7524 66.5754,71.7834 L66.7334,62.7434 Z M62.3234,68.9714 C62.2874,71.0204 60.2904,72.2384 58.3434,72.1994 C57.4974,72.1854 56.3124,71.6904 56.3394,70.1634 C56.3704,68.3414 57.7284,67.9544 59.3644,67.6994 C61.1884,67.4444 61.9164,67.1764 62.3614,66.8414 L62.3234,68.9714 L62.3234,68.9714 Z" id="Fill-153" fill="#000000"></path>
                </g>
            </g>
        </g>
    </g>
</svg>