<?xml version="1.0" encoding="UTF-8"?>
<svg width="110px" height="15px" viewBox="0 0 110 15" version="1.1" xmlns="http://www.w3.org/2000/svg" xmlns:xlink="http://www.w3.org/1999/xlink">
    <!-- Generator: sketchtool 40.3 (33839) - http://www.bohemiancoding.com/sketch -->
    <title>6EB00421-1B85-4704-9B49-4CC4293F5140</title>
    <desc>Created with sketchtool.</desc>
    <defs></defs>
    <g id="Inicio" stroke="none" stroke-width="1" fill="none" fill-rule="evenodd">
        <g transform="translate(-126.000000, -560.000000)" id="poselab" fill="#FFFFFF">
            <g transform="translate(125.000000, 560.000000)">
                <g id="Group-2">
                    <path d="M55.8977,2.1297 C56.1297,2.1297 56.3157,2.1757 56.5477,2.2227 C56.7797,2.2687 56.9657,2.3617 57.1047,2.5007 C57.2447,2.6407 57.3837,2.7797 57.4767,3.0117 C57.5697,3.2437 57.5697,3.5227 57.5227,3.8477 C57.4297,4.2657 57.2907,4.6367 57.0587,4.9627 C56.8267,5.2877 56.5947,5.5197 56.2687,5.7047 C55.9437,5.8907 55.6187,6.0307 55.2007,6.1227 C54.8297,6.2157 54.4117,6.2627 53.9937,6.2627 C53.7617,6.2627 53.5297,6.2627 53.2977,6.2157 C53.0647,6.1697 52.8797,6.1697 52.6477,6.1227 L52.7397,7.2837 L53.4367,7.2837 L54.1327,7.2837 C54.6907,7.2837 55.2477,7.1907 55.8047,7.0517 C56.3617,6.9127 56.8267,6.6807 57.2907,6.4017 C57.7087,6.1227 58.0797,5.7517 58.4047,5.2877 C58.7307,4.8697 58.9157,4.3587 59.0087,3.7547 C59.0557,3.5227 59.0557,3.2437 59.0087,2.9187 C58.9627,2.5937 58.8697,2.3157 58.6837,2.0367 C58.4977,1.7587 58.2197,1.5257 57.8477,1.3407 C57.4767,1.1547 57.0117,1.0617 56.4087,1.0617 L51.6717,1.0617 C51.6257,1.3407 51.5327,1.7117 51.4397,2.2227 C51.3467,2.7337 51.2077,3.2907 51.1147,3.9867 L50.6507,6.1227 C50.5117,6.9127 50.3257,7.7017 50.1397,8.4917 C49.9537,9.2807 49.7687,10.0697 49.5827,10.8597 C49.3967,11.6487 49.2107,12.3457 49.0257,12.9957 L50.5577,12.9957 C50.7437,11.9737 50.9287,10.9527 51.1147,10.0237 C51.3007,9.0947 51.5327,8.1667 51.7187,7.2837 C51.9507,6.4017 52.1367,5.5197 52.3687,4.6837 C52.5547,3.8477 52.7867,3.0117 52.9727,2.1757 L55.8977,2.1757 L55.8977,2.1297 Z" id="Fill-175"></path>
                    <path d="M65.7419,6.0302 C66.1129,6.5872 66.2529,7.3302 66.0669,8.2592 C65.9739,8.7702 65.8349,9.2342 65.6489,9.6522 C65.4629,10.0702 65.1849,10.4882 64.9059,10.8132 C64.5809,11.1382 64.2099,11.4162 63.7919,11.6022 C63.3739,11.7882 62.8169,11.8812 62.2589,11.8812 C61.7489,11.8812 61.2839,11.7882 60.9589,11.6492 C60.6339,11.5092 60.3089,11.2772 60.1229,10.9992 C59.9379,10.7202 59.7979,10.3952 59.7519,10.0232 C59.7049,9.6522 59.7049,9.2342 59.7979,8.8162 C59.8909,8.3052 60.0309,7.8412 60.2159,7.3772 C60.4479,6.9592 60.6809,6.5412 61.0059,6.2162 C61.3309,5.8912 61.7019,5.6122 62.1199,5.4262 C62.5379,5.2412 63.0489,5.1482 63.5599,5.1482 C64.6279,5.1942 65.3709,5.5192 65.7419,6.0302 M61.7949,4.4982 C61.1449,4.7302 60.5879,5.0552 60.1229,5.4262 C59.6589,5.8442 59.2409,6.3092 58.9159,6.8662 C58.5909,7.4232 58.4049,8.0732 58.2659,8.7702 C58.1729,9.4202 58.1729,9.9772 58.2659,10.5342 C58.4049,11.0452 58.6369,11.5092 58.9629,11.8342 C59.2879,12.2062 59.7049,12.4842 60.2629,12.6702 C60.7729,12.8562 61.3769,12.9492 62.0739,12.9492 C62.9559,12.9492 63.7449,12.8092 64.3949,12.5312 C65.0449,12.2522 65.6029,11.8812 66.0669,11.4632 C66.5309,10.9992 66.8559,10.5342 67.1349,9.9772 C67.4139,9.4202 67.5529,8.8632 67.6919,8.3052 C67.7849,7.6552 67.7849,7.0982 67.6919,6.5872 C67.5529,6.0762 67.3669,5.6592 67.0419,5.2872 C66.7169,4.9162 66.2989,4.6372 65.7879,4.4512 C65.2779,4.2652 64.6739,4.1732 63.9769,4.1732 C63.0949,4.1732 62.4449,4.3122 61.7949,4.4982" id="Fill-176"></path>
                    <path d="M68.0172,12.624 C68.4352,12.717 68.8532,12.81 69.2712,12.856 C69.6892,12.903 70.1532,12.949 70.5712,12.949 C70.8962,12.949 71.3142,12.903 71.6852,12.856 C72.0572,12.763 72.4282,12.67 72.7532,12.485 C73.0782,12.299 73.3572,12.113 73.6362,11.835 C73.8682,11.556 74.0542,11.231 74.1002,10.813 C74.1462,10.488 74.1002,10.163 74.0072,9.838 C73.8682,9.559 73.7282,9.281 73.4962,9.002 C73.2642,8.723 73.0322,8.491 72.7532,8.259 C72.4752,8.027 72.2432,7.795 72.0102,7.563 C71.7782,7.33 71.5922,7.098 71.4532,6.866 C71.3142,6.634 71.2672,6.402 71.3142,6.123 C71.3602,5.937 71.4072,5.752 71.5462,5.612 C71.6852,5.473 71.8252,5.38 72.0102,5.334 C72.1962,5.287 72.3822,5.241 72.5682,5.194 C72.7532,5.148 72.9392,5.148 73.1712,5.148 C73.5892,5.148 73.9142,5.194 74.2392,5.287 C74.5642,5.38 74.8432,5.427 75.1222,5.566 L75.2612,4.359 L74.2392,4.219 C73.8682,4.173 73.5432,4.126 73.1712,4.126 C72.1502,4.126 71.3142,4.312 70.7572,4.73 C70.1992,5.148 69.8742,5.612 69.7352,6.262 C69.6892,6.587 69.6892,6.913 69.8282,7.191 C69.9672,7.47 70.1532,7.748 70.3852,7.981 C70.6172,8.213 70.8502,8.491 71.1282,8.723 C71.4072,8.956 71.6392,9.188 71.8712,9.42 C72.1032,9.652 72.2892,9.884 72.4282,10.117 C72.5682,10.349 72.6142,10.581 72.5682,10.859 C72.5212,11.092 72.4282,11.277 72.2892,11.417 C72.1502,11.556 71.9642,11.649 71.7782,11.742 C71.5922,11.835 71.3602,11.881 71.1752,11.927 C70.9422,11.974 70.7572,11.974 70.5712,11.974 C70.1072,11.974 69.6892,11.927 69.2712,11.835 C68.8532,11.742 68.4812,11.602 68.1102,11.417 L68.0172,12.624 Z" id="Fill-177"></path>
                    <path d="M77.5364,7.284 C77.7684,6.634 78.1864,6.17 78.7434,5.798 C79.3014,5.427 79.9974,5.241 80.8334,5.241 C81.2044,5.241 81.5294,5.287 81.8084,5.38 C82.0874,5.473 82.2724,5.612 82.4584,5.798 C82.5974,5.984 82.6904,6.216 82.7374,6.448 C82.7834,6.68 82.7834,6.959 82.7374,7.284 L77.5364,7.284 Z M84.0834,8.306 C84.1304,8.027 84.1764,7.748 84.2234,7.563 C84.4084,6.448 84.2234,5.612 83.6194,5.009 C83.0154,4.451 82.1334,4.173 80.9724,4.173 C80.2294,4.173 79.5794,4.312 78.9754,4.498 C78.3724,4.73 77.8614,5.055 77.4434,5.473 C76.9794,5.891 76.6544,6.355 76.3294,6.913 C76.0504,7.47 75.8184,8.073 75.7254,8.723 C75.6324,9.234 75.6324,9.745 75.6794,10.256 C75.7254,10.767 75.8644,11.185 76.1434,11.602 C76.4224,12.02 76.8394,12.299 77.3974,12.578 C77.9544,12.81 78.6504,12.949 79.5794,12.949 C80.4614,12.949 81.3444,12.856 82.3194,12.624 L82.7834,11.37 C82.3194,11.51 81.8544,11.649 81.3904,11.742 C80.9264,11.881 80.4614,11.927 79.9974,11.927 C78.9754,11.927 78.2334,11.649 77.7684,11.138 C77.2574,10.581 77.1184,9.838 77.3044,8.816 L77.3974,8.306 L84.0834,8.306 Z" id="Fill-178"></path>
                    <path d="M88.7736,12.949 L91.9776,12.949 C91.9776,12.81 92.0706,12.578 92.1166,12.345 C91.6066,12.392 91.1416,12.392 90.5846,12.392 L87.7986,12.392 L85.8946,12.392 L86.8696,7.841 L88.4026,1.062 L88.1236,1.062 L87.8916,1.062 L87.3346,3.941 L85.9406,10.209 L85.2446,12.995 L88.7736,12.949 Z" id="Fill-179"></path>
                    <path d="M95.9246,4.9158 C96.2036,4.8698 96.5286,4.7768 96.8996,4.7768 C97.2716,4.7298 97.6896,4.6838 98.1536,4.6838 C98.5246,4.6838 98.8966,4.7298 99.2216,4.7768 C99.5466,4.8228 99.8256,4.9618 100.0106,5.1018 C100.1966,5.2868 100.3356,5.4268 100.3826,5.6588 C100.4286,5.8448 100.4756,6.0298 100.4286,6.2158 C100.3826,6.4948 100.2426,6.7268 100.0106,6.9588 C99.7786,7.1908 99.4996,7.4228 99.1286,7.5628 C98.7576,7.7018 98.3856,7.8408 98.0146,7.8878 C97.1316,8.0738 96.6676,8.2128 96.5286,8.2128 C96.0636,8.3518 95.6456,8.4908 95.2276,8.6308 C94.8566,8.7698 94.5316,8.9088 94.2526,9.0488 C93.9746,9.1878 93.7886,9.3268 93.6026,9.5128 C93.4176,9.6988 93.2316,9.9308 93.1386,10.1168 C92.9996,10.3488 92.9526,10.5348 92.9066,10.7668 C92.8596,11.0448 92.8596,11.3698 92.9526,11.6028 C93.0456,11.8808 93.1846,12.1128 93.4636,12.3458 C93.6956,12.5778 94.0206,12.7168 94.4386,12.7628 C94.8566,12.8558 95.2746,12.8558 95.7856,12.8558 L96.6216,12.8558 L97.7816,12.8558 C97.8286,12.6708 97.8286,12.5308 97.8746,12.3458 L96.9926,12.3458 L96.3426,12.3458 L95.6456,12.3458 C95.1356,12.3458 94.7176,12.2988 94.4386,12.2058 C94.1136,12.1128 93.8816,11.9278 93.6956,11.6488 C93.5096,11.3698 93.4636,11.0448 93.5096,10.7198 C93.5566,10.4878 93.6496,10.2558 93.7426,10.0698 C93.8816,9.8848 94.0206,9.7448 94.2066,9.5588 C94.4386,9.3738 94.7176,9.2338 95.0426,9.0488 C95.3206,8.9088 95.7856,8.7698 96.2956,8.6308 C96.5286,8.5838 96.8996,8.4448 97.4566,8.3518 C98.0146,8.2128 98.3396,8.1198 98.4786,8.0738 C98.6176,8.0268 98.7576,7.9808 98.9426,7.9338 C99.1286,7.8878 99.2676,7.8408 99.3606,7.7488 C99.5006,7.7018 99.5926,7.6088 99.7326,7.5628 C99.8256,7.5158 100.0106,7.3768 100.1966,7.2378 C100.0576,7.7948 99.9176,8.3988 99.7786,9.0018 C99.6396,9.6518 99.5006,10.2098 99.3606,10.7668 C99.2216,11.3238 99.0356,12.0208 98.7576,12.9028 L99.0356,12.9028 L99.3146,12.9028 L99.4536,12.2058 C99.5006,11.8808 99.6396,11.3238 99.8256,10.5808 C100.0106,9.8378 100.1966,9.2338 100.3826,8.7238 C100.5216,8.2128 100.6606,7.7488 100.8006,7.3308 C100.9396,6.9128 100.9856,6.5408 101.0326,6.2628 C101.0786,5.9838 101.0786,5.7048 101.0326,5.4268 C100.9856,5.1478 100.8466,4.9158 100.5686,4.7298 C100.3356,4.4978 99.9646,4.3588 99.5466,4.2658 C99.1286,4.1728 98.6176,4.1268 98.1066,4.1268 C97.6426,4.1268 97.1786,4.1728 96.7606,4.2188 C96.2966,4.3118 95.7386,4.4518 95.1356,4.6368 C95.0886,4.8228 95.0426,5.0088 95.0426,5.1478 C95.3206,5.1018 95.6456,5.0088 95.9246,4.9158" id="Fill-180"></path>
                    <path d="M102.054,12.949 L102.333,12.949 L102.797,10.767 C102.843,11.092 102.89,11.324 102.983,11.51 C103.029,11.695 103.168,11.835 103.308,12.02 C103.447,12.206 103.633,12.345 103.865,12.485 C104.097,12.624 104.376,12.763 104.701,12.81 C105.026,12.903 105.397,12.949 105.769,12.949 C106.419,12.949 107.023,12.856 107.626,12.624 C108.183,12.438 108.741,12.067 109.205,11.602 C109.669,11.138 110.041,10.627 110.319,10.024 C110.598,9.42 110.784,8.863 110.923,8.213 C111.016,7.655 111.016,7.145 110.969,6.634 C110.923,6.123 110.737,5.659 110.412,5.241 C110.134,4.823 109.716,4.544 109.159,4.359 C108.601,4.173 107.998,4.08 107.208,4.08 C106.79,4.08 106.326,4.126 105.862,4.173 C105.397,4.219 104.84,4.359 104.144,4.591 L104.469,3.105 C104.608,2.408 104.794,1.665 104.933,0.969 L104.654,0.969 L104.422,0.969 L103.633,4.823 L102.054,11.974 L101.822,12.856 C101.915,12.949 102.008,12.949 102.054,12.949 M105.862,4.823 C106.372,4.73 106.837,4.73 107.301,4.73 C108.044,4.73 108.648,4.869 109.159,5.102 C109.669,5.334 110.041,5.752 110.273,6.262 C110.505,6.82 110.552,7.47 110.412,8.213 C110.319,8.77 110.134,9.327 109.855,9.838 C109.576,10.395 109.251,10.859 108.88,11.277 C108.508,11.695 108.044,11.974 107.533,12.16 C107.023,12.345 106.465,12.438 105.955,12.438 C105.397,12.438 104.933,12.345 104.515,12.16 C104.097,11.974 103.772,11.695 103.54,11.324 C103.308,10.952 103.215,10.534 103.168,10.116 C103.168,9.652 103.168,9.141 103.308,8.538 C103.401,8.12 103.447,7.702 103.54,7.377 C103.633,7.052 103.772,6.309 104.051,5.194 C104.747,5.009 105.351,4.869 105.862,4.823" id="Fill-181"></path>
                    <path d="M18.3783,7.0054 C18.3783,9.6984 19.0753,11.3234 19.0753,11.3234 C19.0753,11.3234 19.8173,9.6984 19.8173,7.0054 C19.8173,4.0334 19.0753,3.0124 19.0753,3.0124 C19.0753,3.0124 18.3783,4.0804 18.3783,7.0054" id="Fill-182"></path>
                    <path d="M22.511,7.0054 C22.511,9.6984 23.208,11.3234 23.208,11.3234 C23.208,11.3234 23.95,9.6984 23.95,7.0054 C23.95,4.0334 23.208,3.0124 23.208,3.0124 C23.208,3.0124 22.511,4.0804 22.511,7.0054" id="Fill-183"></path>
                    <path d="M26.6437,7.0054 C26.6437,9.6984 27.3407,11.3234 27.3407,11.3234 C27.3407,11.3234 28.0827,9.6984 28.0827,7.0054 C28.0827,4.0334 27.3407,3.0124 27.3407,3.0124 C27.3407,3.0124 26.6437,4.0804 26.6437,7.0054" id="Fill-184"></path>
                    <path d="M27.4331,11.6024 C26.1791,12.2994 24.7401,12.7164 23.2071,12.7164 C21.1641,12.7164 19.3071,12.0204 17.7751,10.8134 C17.4961,10.6274 17.2641,10.3954 17.0321,10.1634 L16.9391,10.0704 C16.7071,9.8374 16.4741,9.6054 16.2421,9.3734 C16.1961,9.3274 16.1491,9.2804 16.1031,9.2344 C15.8711,9.0024 15.6851,8.7694 15.4531,8.4914 C15.4061,8.4444 15.3601,8.3984 15.3131,8.3524 C15.0811,8.1194 14.8961,7.8414 14.6631,7.6094 C14.6171,7.5624 14.5711,7.5164 14.5241,7.4694 C14.4311,7.3764 14.3851,7.2844 14.2921,7.1914 C14.3851,7.0984 14.4311,7.0054 14.5241,6.9124 C14.5711,6.8664 14.6171,6.8194 14.6631,6.7734 C14.8961,6.4944 15.0811,6.2624 15.3131,6.0304 C15.3601,5.9834 15.4061,5.9374 15.4531,5.8904 C15.6851,5.6584 15.8711,5.3804 16.1031,5.1484 C16.1491,5.1014 16.1961,5.0554 16.2421,5.0084 C16.4741,4.7764 16.7071,4.5444 16.9391,4.3124 C16.9851,4.2654 16.9851,4.2654 17.0321,4.2194 C17.2641,3.9874 17.5421,3.7544 17.7751,3.5694 C18.9351,2.6864 20.2821,2.0364 21.7211,1.8044 C21.9541,1.7584 22.1861,1.7114 22.4641,1.7114 C22.6971,1.7114 22.9751,1.6654 23.2071,1.6654 C23.4401,1.6654 23.7181,1.6654 23.9501,1.7114 C24.1831,1.7584 24.4611,1.7584 24.6931,1.8044 C25.6681,1.9904 26.5971,2.3154 27.4331,2.7794 C27.8511,3.0124 28.2691,3.2904 28.6401,3.5694 C28.9191,3.7544 29.1511,3.9874 29.3831,4.2194 L29.4761,4.3124 C29.7081,4.5444 29.9401,4.7764 30.1731,5.0084 C30.2191,5.0554 30.2661,5.1014 30.3121,5.1484 C30.5441,5.3804 30.7301,5.6124 30.9621,5.8904 C31.0081,5.9374 31.0551,5.9834 31.1011,6.0304 C31.3341,6.2624 31.5191,6.5414 31.7511,6.7734 C31.7981,6.8194 31.8441,6.8664 31.8911,6.9124 C31.9841,7.0054 32.0301,7.0984 32.1231,7.1914 C32.0301,7.2844 31.9841,7.3764 31.8911,7.4694 C31.8441,7.5164 31.7981,7.5624 31.7511,7.6094 C31.5191,7.8874 31.3341,8.1194 31.1011,8.3524 C31.0551,8.3984 31.0081,8.4444 30.9621,8.4914 C30.7301,8.7234 30.5441,9.0024 30.3121,9.2344 L30.1731,9.3734 C29.9401,9.6054 29.7081,9.8374 29.4761,10.0704 C29.4301,10.1164 29.4301,10.1164 29.3831,10.1634 C29.1511,10.3954 28.8721,10.6274 28.6401,10.8134 C28.2691,11.0914 27.8511,11.3234 27.4331,11.6024 M41.8741,12.4384 C39.4131,11.9274 37.6491,10.4414 36.0231,8.6774 C35.5591,8.1664 35.1411,7.7014 34.7231,7.1914 L34.6771,7.1444 L34.7231,7.0984 C35.1411,6.5874 35.6061,6.0764 36.0231,5.6124 C37.6021,3.8474 39.4131,2.3154 41.8741,1.8514 C43.0821,1.6184 44.4751,1.5724 45.4961,2.3614 C45.4031,2.1294 45.3101,1.9444 45.1711,1.7584 C45.0781,1.7114 44.9851,1.6184 44.8931,1.5264 C44.7071,1.3864 44.5211,1.2474 44.3351,1.1544 C44.1501,1.0614 43.9171,0.9684 43.7321,0.9224 C43.6391,0.8764 43.4991,0.8764 43.4071,0.8294 C43.1741,0.7834 42.8961,0.7364 42.6171,0.6904 C42.3391,0.6434 42.0601,0.6904 41.7351,0.6904 C41.4561,0.6904 41.1311,0.7364 40.8531,0.7834 C39.3201,1.0614 37.7421,1.7114 36.6741,2.3614 C35.9311,2.8264 35.2801,3.3834 34.6771,4.0334 C34.4451,4.3124 34.2121,4.5444 33.9801,4.8234 C33.8411,4.9624 33.7481,5.1484 33.6091,5.2874 C33.5161,5.3804 33.4231,5.5194 33.3301,5.6124 C33.2841,5.5654 33.2371,5.5194 33.1911,5.4734 C33.0051,5.2874 32.8661,5.1014 32.6801,4.9154 C32.5411,4.7764 32.4021,4.6374 32.2621,4.5444 C32.0761,4.3584 31.8911,4.1724 31.7051,4.0334 C31.5661,3.9404 31.4731,3.8014 31.3341,3.7084 C31.1481,3.5224 30.9161,3.3374 30.7301,3.1514 C30.6371,3.0584 30.4981,2.9654 30.4051,2.8724 C30.0801,2.5944 29.7551,2.3614 29.3831,2.1294 C28.7331,1.6654 27.9441,1.2934 27.2011,0.9684 C26.6901,0.7364 26.1331,0.5974 25.5761,0.4584 C25.2971,0.4114 25.0181,0.3184 24.7861,0.2724 C24.2751,0.1794 23.7181,0.1334 23.2071,0.1334 C22.6971,0.1334 22.1391,0.1794 21.6291,0.2724 C20.0031,0.5504 18.3321,1.2474 16.9851,2.1294 C16.6601,2.3614 16.2891,2.5944 15.9641,2.8724 C15.8711,2.9654 15.7311,3.0584 15.6391,3.1514 C15.4061,3.3374 15.2211,3.5224 15.0351,3.7084 C14.8961,3.8014 14.8031,3.9404 14.6631,4.0334 C14.4781,4.2194 14.2921,4.4054 14.1061,4.5444 C13.9671,4.6834 13.8741,4.7764 13.7351,4.9154 C13.5491,5.1014 13.4101,5.2874 13.2241,5.4734 C13.1771,5.5194 13.1311,5.5654 13.0851,5.6124 C12.9921,5.5194 12.8991,5.3804 12.8061,5.2874 C12.6671,5.1484 12.5741,4.9624 12.4351,4.8234 C12.2021,4.5444 11.9701,4.2654 11.7381,4.0334 C11.3201,3.5694 10.8091,3.1514 10.2991,2.7334 C10.1131,2.5944 9.9271,2.5014 9.7411,2.3614 C8.9981,1.8974 7.9771,1.4334 6.9551,1.1084 C6.4911,0.9684 6.0271,0.8764 5.5621,0.7834 C5.2841,0.7364 5.0051,0.6904 4.6801,0.6904 L4.2621,0.6904 C3.8441,0.6904 3.4261,0.7364 3.0551,0.8294 C2.9151,0.8294 2.8231,0.8764 2.7301,0.9224 C2.6371,0.9684 2.4971,0.9684 2.4051,1.0154 C1.7551,1.2934 1.1971,1.7114 0.9651,2.3614 C1.9871,1.5724 3.3801,1.6184 4.5871,1.8514 C7.0481,2.3614 8.8591,3.8474 10.4381,5.6124 C10.9021,6.1234 11.3201,6.5874 11.7381,7.0984 L11.7841,7.1444 L11.7381,7.1914 C11.3201,7.7014 10.8561,8.2124 10.4381,8.6774 C8.8591,10.4414 7.0481,11.9734 4.5871,12.4384 C3.3801,12.6704 1.9871,12.7164 0.9651,11.9274 C1.1971,12.5774 1.7551,12.9954 2.4051,13.2744 C2.6371,13.3674 2.8231,13.4134 3.0551,13.5064 C3.2871,13.5524 3.5651,13.5994 3.8441,13.5994 L4.2621,13.5994 L4.6801,13.5994 C4.9591,13.5994 5.2841,13.5524 5.5621,13.5064 C6.0271,13.4134 6.4911,13.3204 6.9551,13.1814 C8.0231,12.8564 8.9981,12.3914 9.7411,11.9274 C9.9271,11.7884 10.1131,11.6954 10.2991,11.5564 C10.8091,11.1844 11.3201,10.7204 11.7381,10.2554 C11.9701,9.9774 12.2021,9.7454 12.4351,9.4664 C12.5741,9.3274 12.6671,9.1414 12.8061,9.0024 C12.8991,8.9094 12.9921,8.7694 13.0851,8.6774 C13.1311,8.7234 13.1771,8.7694 13.2241,8.8164 C13.4101,9.0024 13.5491,9.1874 13.7351,9.3734 C13.8741,9.5124 13.9671,9.6054 14.1061,9.7454 C14.2921,9.9304 14.4781,10.1164 14.6631,10.2554 C14.8031,10.3484 14.8961,10.4884 15.0351,10.5804 C15.2211,10.7664 15.4531,10.9524 15.6391,11.1384 C15.7311,11.2314 15.8711,11.3234 15.9641,11.4164 C16.2891,11.6954 16.6141,11.9274 16.9851,12.1594 C18.3321,13.0414 20.0031,13.7384 21.6291,14.0174 C22.1861,14.1094 22.6971,14.1564 23.2071,14.1564 C23.7181,14.1564 24.2751,14.1094 24.7861,14.0174 C25.0651,13.9704 25.3431,13.9244 25.5761,13.8314 C26.1331,13.6924 26.6441,13.5064 27.2011,13.3204 C27.9901,12.9954 28.7331,12.6244 29.3831,12.1594 C29.7081,11.9274 30.0801,11.6954 30.4051,11.4164 C30.4981,11.3234 30.6371,11.2314 30.7301,11.1384 C30.9621,10.9524 31.1481,10.7664 31.3341,10.5804 C31.4731,10.4884 31.5661,10.3484 31.7051,10.2554 C31.8911,10.0704 32.0761,9.8844 32.2621,9.7454 C32.4021,9.6054 32.4941,9.5124 32.6341,9.3734 C32.8191,9.1874 32.9591,9.0024 33.1441,8.8164 C33.1911,8.7694 33.2371,8.7234 33.2841,8.6774 C33.3771,8.7694 33.4701,8.9094 33.5621,9.0024 C33.7021,9.1414 33.8411,9.3274 33.9341,9.4664 C34.1661,9.7454 34.3981,10.0234 34.6301,10.2554 C35.2341,10.9054 35.8841,11.4634 36.6271,11.9274 C38.3451,12.9954 41.3631,14.0174 43.3601,13.4594 C44.1961,13.2274 45.1251,12.8094 45.4501,11.9274 C44.4751,12.7164 43.0351,12.7164 41.8741,12.4384" id="Fill-185"></path>
                </g>
            </g>
        </g>
    </g>
</svg>