<?xml version="1.0" encoding="UTF-8"?>
<svg width="214px" height="204px" viewBox="0 0 214 204" version="1.1" xmlns="http://www.w3.org/2000/svg" xmlns:xlink="http://www.w3.org/1999/xlink">
    <!-- Generator: sketchtool 40.3 (33839) - http://www.bohemiancoding.com/sketch -->
    <title>1CA49ABA-2776-43D3-830F-BC71B87518BB</title>
    <desc>Created with sketchtool.</desc>
    <defs></defs>
    <g id="Inicio" stroke="none" stroke-width="1" fill="none" fill-rule="evenodd">
        <g id="Slide-4" transform="translate(-73.000000, -194.000000)">
            <g id="slide4" transform="translate(73.000000, 194.000000)">
                <g id="Layer_1">
                    <g id="Group">
                        <path d="M203,197 L44,197 C26.8610937,197 13,183.109725 13,166 L13,160 C13,142.890275 26.8610937,129 44,129 L203,129 L203,197 L203,197 Z" id="Shape" fill="#FFFFFF"></path>
                        <rect id="Rectangle-path" fill="#5C546A" x="20" y="136" width="17" height="54"></rect>
                        <path d="M188,119 L7,119 L7,71 L188,71 C192.822545,71 197,75.2214286 197,80 L197,110 C197,114.778571 192.822545,119 188,119 L188,119 Z" id="Shape" fill="#FFF1CD"></path>
                        <rect id="Rectangle-path" fill="#FFF1CD" x="30" y="10" width="173" height="51"></rect>
                        <path d="M204,204 L48,204 C25.30305,204 7,185.608937 7,163 C7,140.391063 25.30305,122 48,122 L204,122 C207.9553,122 211,125.059625 211,129 C211,132.607042 207.9553,135.666667 204,136 L48,136 C32.802175,135.666667 20.6,147.928656 21,163 C20.6,178.071344 32.802175,190.333333 48,190 L204,190 C207.9553,190.333333 211,193.392958 211,197 C211,200.940375 207.9553,204 204,204 L204,204 Z" id="Shape" fill="#54E5DA"></path>
                        <path d="M183,122 L3,122 C1.51610169,122 0,120.490531 0,119 C0,116.759469 1.51610169,115.25 3,115 L183,115 C188.658475,115.25 193.220339,110.708094 193,105 L193,85 C193.220339,79.2919062 188.658475,74.75 183,75 L3,75 C1.51610169,74.75 0,73.2405313 0,71 C0,69.5094687 1.51610169,68 3,68 L183,68 C192.396186,68 200,75.5705469 200,85 L200,105 C200,114.429453 192.396186,122 183,122 L183,122 Z" id="Shape" fill="#009BCA"></path>
                        <path d="M204,21 L47,21 C45.5242553,21 44,20.328375 44,20 L44,20 C44,18.671625 45.5242553,18 47,18 L204,18 L204,21 L204,21 Z" id="Shape" fill="#F0D5B9"></path>
                        <path d="M204,39 L47,39 C45.5242553,39 44,38.328375 44,38 L44,38 C44,36.671625 45.5242553,36 47,36 L204,36 L204,39 L204,39 Z" id="Shape-Copy" fill="#F0D5B9"></path>
                        <path d="M204,27 L47,27 C45.5242553,27 44,26.328375 44,26 L44,26 C44,24.671625 45.5242553,24 47,24 L204,24 L204,27 L204,27 Z" id="Shape" fill="#F0D5B9"></path>
                        <path d="M204,44 L47,44 C45.5242553,44 44,43.328375 44,43 L44,43 C44,41.671625 45.5242553,41 47,41 L204,41 L204,44 L204,44 Z" id="Shape-Copy-2" fill="#F0D5B9"></path>
                        <path d="M204,33 L47,33 C45.5242553,33 44,32.328375 44,32 L44,32 C44,30.671625 45.5242553,30 47,30 L204,30 L204,33 L204,33 Z" id="Shape" fill="#F0D5B9"></path>
                        <path d="M204,50 L47,50 C45.5242553,50 44,49.328375 44,49 L44,49 C44,47.671625 45.5242553,47 47,47 L204,47 L204,50 L204,50 Z" id="Shape-Copy-3" fill="#F0D5B9"></path>
                        <path d="M207,68 L44,68 C33.1314509,68 24,58.849325 24,48 L24,20 C24,9.150675 33.1314509,0 44,0 L207,0 C210.961696,0 214,3.0447 214,7 C214,10.5553 210.961696,13.6 207,14 L44,14 C40.6148214,13.6 37.5714286,16.6498 38,20 L38,48 C37.5714286,51.3485 40.6148214,54.4 44,54 L207,54 C210.961696,54.4 214,57.4447 214,61 C214,64.9553 210.961696,68 207,68 L207,68 Z" id="Shape" fill="#E49F8A"></path>
                    </g>
                </g>
            </g>
        </g>
    </g>
</svg>